^C:\USERS\PC USER\CPPPROJECTS\HOMEWORK14\HOMEWORK14.CPP
C:\USERS\PC USER\CPPPROJECTS\HOMEWORK14\X64\DEBUG\VC143.PDB
C:\USERS\PC USER\CPPPROJECTS\HOMEWORK14\X64\DEBUG\VC143.IDB
C:\USERS\PC USER\CPPPROJECTS\HOMEWORK14\X64\DEBUG\HOMEWORK14.OBJ
